[gd_scene load_steps=4 format=2]

[sub_resource type="DynamicFontData" id=1]
font_path = "res://assets/DejaVuSans-Bold.ttf"

[sub_resource type="DynamicFont" id=2]
font_data = SubResource( 1 )

[sub_resource type="GDScript" id=3]
script/source = "extends Button


var status = null
var server_ip = -1
var server_port = -1

var human_status = {
	'UNCERTAIN': {
		'text': '...',
		'color': '#7f8c8d'
	},
	'WAITING': {
		'text': 'JOIN GAME',
		'color': '#27ae60'
	},
	'FREE': {
		'text': 'CREATE GAME',
		'color': '#2980b9'
	},
	'BUSY': {
		'text': 'BUSY',
		'color': '#c0392b'
	},
}

func switch_status(new_status,data={}):
	status = new_status
	text = human_status[status].text
	if status == 'WAITING':
		var nickname = data.values()[0] if data.size() >= 1 else ''
		text = \"JOIN room %s with '%s'\" % [lobby.get_game_name(server_port), nickname]
	add_color_override(\"font_color\",Color(human_status[status].color))
	add_color_override(\"font_color_hover\",Color(human_status[status].color))


func set_server(ip,port):
	server_ip = ip
	server_port = int(port)


func _on_btjoin_pressed():
	$'/root/lobby-scene'.clear_game_buttons()
	
	match status:
		'WAITING':
			# join game
			$'/root/lobby-scene'.join(server_ip,server_port)
		
		'FREE':
			# ask server to create game
			$'/root/lobby-scene'.create_game()

"

[node name="bt-join" type="Button" groups=[
"bt-join",
]]
custom_fonts/font = SubResource( 2 )
text = "JOIN / BUSY / CREATE"
script = SubResource( 3 )
__meta__ = {
"_edit_use_anchors_": false
}
[connection signal="pressed" from="." to="." method="_on_btjoin_pressed"]
